{
    "result": [
        {
            "product_name": "Koylak",
            "product_qty": 30,
            "product_materials": [
                {
                    "warehouse_id": 1,
                    "material_name": "Mato",
                    "qty": 12,
                    "price": 1500
                },
                {
                    "warehouse_id": 2,
                    "material_name": "Mato",
                    "qty": 12,
                    "price": 1600
                },
                {
                    "warehouse_id": 5,
                    "material_name": "Tugma",
                    "qty": 150,
                    "price": 300
                },
                {
                    "warehouse_id": 3,
                    "material_name": "Ip",
                    "qty": 40,
                    "price": 500
                },
                {
                    "warehouse_id": 4,
                    "material_name": "Ip",
                    "qty": 260,
                    "price": 550
                }
            ]
        },
        {
            "product_name": "Shim",
            "product_qty": 20,
            "product_materials": [
                {
                    "warehouse_id": 2,
                    "material_name": "Mato",
                    "qty": 28,
                    "price": 1600
                },
                {
                    "warehouse_id": 4,
                    "material_name": "Ip",
                    "qty": 40,
                    "price": 550
                },
                {
                    "warehouse_id": null,
                    "material_name": "Ip",
                    "qty": 260,
                    "price": null
                },
                {
                    "warehouse_id": 6,
                    "material_name": "Zamok",
                    "qty": 20,
                    "price": 2000
                }
            ]
        }
    ]
}